"VertexlitGeneric"
{
	$basetexture "models/phase2/Jetpack_c.vtf"
	$bumpmap "models/phase2/Jetpack_n"
	$surfaceprop "Metal"

	$envmap	"Nada/shiny_lightwarp2"

	$phong 1
    	$phongfresnelranges "[0.5 1 2]"
	$phongexponenttexture "models/phase2/Jetpack_exp"
	$phongboost 2

	$rimlight 1
	$rimlightexponent       2
	$rimlightboost          .2
	$rimmask 0

	$nocull 1

	$reflectivity "[.5 .5 .5]"
	$receiveflashlight 1
}

